// MilkShape 3D ASCII

Frames: 30
Frame: 1

Meshes: 1
"Fish" 0 0
31
0 0.000000 0.329420 -15.775041 0.099609 0.715509 0
0 -2.599998 0.432739 -8.879443 0.193868 0.674618 0
0 0.000000 10.207271 -3.059761 0.227531 0.449717 0
0 0.000000 -1.410498 -15.753819 0.106342 0.749584 0
0 0.000000 -4.737073 -8.385290 0.214066 0.773438 0
0 0.000000 -7.309690 0.586494 0.339743 0.773438 0
0 -3.799998 2.003200 0.760195 0.312812 0.589428 0
0 0.000000 -7.224749 7.546182 0.429513 0.732547 1
0 0.000000 -7.281094 18.626553 0.573144 0.671210 2
0 -3.799998 3.434685 12.093823 0.454199 0.497424 2
0 0.000000 -5.413762 29.044857 0.701066 0.575798 4
0 -1.999999 3.562098 22.533352 0.588854 0.436087 3
0 0.000000 -2.858491 38.273357 0.811034 0.473570 6
0 -0.999999 1.924881 34.894253 0.754928 0.398604 5
1 0.000000 -2.771234 42.806324 0.869384 0.446310 7
0 -0.599999 0.728142 41.486423 0.844697 0.384973 6
1 0.000000 -2.454282 46.538258 0.916513 0.419049 7
1 -0.599999 0.289982 44.828442 0.889582 0.374751 7
1 0.000000 -0.120617 48.074352 0.927734 0.364528 7
0 0.000000 4.306191 39.287495 0.797568 0.327045 6
0 0.000000 8.526855 30.614899 0.669647 0.292969 4
1 0.000000 3.592395 43.590778 0.855919 0.316822 7
1 0.000000 3.016415 47.413433 0.907536 0.306599 7
0 0.000000 12.253741 11.571094 0.409315 0.327045 2
0 2.599998 0.432739 -8.879443 0.193868 0.674618 0
0 3.799998 2.003200 0.760195 0.312812 0.589428 0
0 3.799998 3.434685 12.093823 0.454199 0.497424 2
0 1.999999 3.562098 22.533352 0.588854 0.436087 3
0 0.999999 1.924881 34.894253 0.754928 0.398604 5
0 0.599999 0.728142 41.486423 0.844697 0.384973 6
1 0.599999 0.289982 44.828442 0.889582 0.374751 7
31
0.000000 0.521819 -0.853056
-0.970821 -0.031506 -0.237727
-0.000000 0.903414 -0.428769
-0.000000 -0.635575 -0.772039
-0.000000 -0.964622 -0.263635
0.000000 -0.990814 -0.135229
-0.996236 -0.064720 -0.057660
-0.000000 -0.999012 0.044450
0.000000 -0.967264 0.253774
-0.997356 -0.028469 0.066856
0.000000 -0.969214 0.246221
-0.993736 0.051535 0.099164
0.000000 -0.989639 0.143579
-0.996990 0.019973 0.074914
-0.000000 -0.999987 -0.005053
-0.999575 0.010581 0.027179
0.000000 -0.861767 0.507305
-0.997612 -0.012689 0.067893
0.000000 -0.196240 0.980556
0.000000 0.935744 0.352679
-0.000000 0.937308 0.348501
-0.000000 0.989067 0.147468
-0.000000 0.728118 0.685452
0.000000 0.997597 0.069288
0.970821 -0.031506 -0.237727
0.996236 -0.064720 -0.057660
0.997356 -0.028469 0.066856
0.993736 0.051535 0.099164
0.996990 0.019973 0.074914
0.999575 0.010581 0.027179
0.997612 -0.012689 0.067893
60
0 0 1 2 0 1 2 1
0 3 1 0 3 1 0 1
0 3 4 1 3 4 1 1
0 4 5 6 4 5 6 1
0 5 7 6 5 7 6 1
0 7 8 9 7 8 9 1
0 8 10 11 8 10 11 1
0 10 12 13 10 12 13 1
0 12 14 15 12 14 15 1
0 14 16 17 14 16 17 1
0 16 18 17 16 18 17 1
0 13 15 13 13 15 13 1
0 19 20 13 19 20 13 1
0 15 21 19 15 21 19 1
0 17 22 21 17 22 21 1
0 15 17 21 15 17 21 1
0 15 14 17 15 14 17 1
0 11 13 20 11 13 20 1
0 23 9 11 23 9 11 1
0 6 9 23 6 9 23 1
0 1 6 2 1 6 2 1
0 2 6 23 2 6 23 1
0 23 11 20 23 11 20 1
0 6 7 9 6 7 9 1
0 9 8 11 9 8 11 1
0 11 10 13 11 10 13 1
0 13 12 15 13 12 15 1
0 13 15 19 13 15 19 1
0 17 18 22 17 18 22 1
0 1 4 6 1 4 6 1
0 2 24 0 2 24 0 1
0 0 24 3 0 24 3 1
0 24 4 3 24 4 3 1
0 25 5 4 25 5 4 1
0 25 7 5 25 7 5 1
0 26 8 7 26 8 7 1
0 27 10 8 27 10 8 1
0 28 12 10 28 12 10 1
0 29 14 12 29 14 12 1
0 30 16 14 30 16 14 1
0 30 18 16 30 18 16 1
0 28 29 28 28 29 28 1
0 28 20 19 28 20 19 1
0 19 21 29 19 21 29 1
0 21 22 30 21 22 30 1
0 21 30 29 21 30 29 1
0 30 14 29 30 14 29 1
0 20 28 27 20 28 27 1
0 27 26 23 27 26 23 1
0 23 26 25 23 26 25 1
0 2 25 24 2 25 24 1
0 23 25 2 23 25 2 1
0 20 27 23 20 27 23 1
0 26 7 25 26 7 25 1
0 27 8 26 27 8 26 1
0 28 10 27 28 10 27 1
0 29 12 28 29 12 28 1
0 19 29 28 19 29 28 1
0 22 18 30 22 18 30 1
0 25 4 24 25 4 24 1

Materials: 2
"Material04"
0.200000 0.200000 0.200000 1.000000
0.800000 0.800000 0.800000 1.000000
0.000000 0.000000 0.000000 1.000000
0.000000 0.000000 0.000000 1.000000
0.000000
1.000000
"wrasse.jpg"
""
"Fish"
0.200000 0.200000 0.200000 1.000000
0.800000 0.800000 0.800000 1.000000
0.000000 0.000000 0.000000 1.000000
0.000000 0.000000 0.000000 1.000000
0.000000
1.000000
"wrasse.jpg"
""

Bones: 8
"joint1"
""
16 0.000000 0.238709 -0.480321 -0.192701 0.000000 0.000000
3
1.000000 0.000000 -0.000000 0.000000
15.000000 0.000000 -0.000000 0.000000
30.000000 0.000000 -0.000000 0.000000
3
1.000000 0.001847 0.137026 0.026909
15.000000 0.001847 -0.137025 -0.026909
30.000000 0.001847 0.137026 0.026909
"joint2"
"joint1"
16 0.000000 0.000000 8.354640 0.222994 0.000411 0.000000
3
1.000000 0.000000 0.000000 0.000000
15.000000 -0.000000 0.000000 0.000000
30.000000 0.000000 -0.000000 0.000000
3
1.000000 -0.000068 -0.069781 0.002118
15.000000 -0.000079 0.069781 -0.002118
30.000000 -0.000068 -0.069781 0.002118
"joint3"
"joint2"
16 0.000000 0.000000 6.603032 0.003273 0.000368 -3.141593
3
1.000000 -0.000000 0.000000 -0.000001
15.000000 0.000001 -0.000001 -0.000000
30.000000 0.000000 0.000000 0.000002
3
1.000000 0.000060 0.069788 0.001889
15.000000 0.000072 -0.069788 -0.001889
30.000000 0.000060 0.069788 0.001889
"joint4"
"joint3"
16 0.000000 0.000000 7.402704 -0.060987 0.000000 0.000000
3
1.000000 -0.000000 0.000001 -0.000002
15.000000 0.000005 -0.000003 -0.000002
30.000000 0.000001 -0.000001 0.000011
3
1.000000 0.000208 0.069543 0.006146
15.000000 0.000220 -0.069542 -0.006146
30.000000 0.000207 0.069543 0.006146
"joint5"
"joint4"
16 0.000000 0.000000 6.826418 0.116011 -0.000000 -3.141593
3
1.000000 0.000001 -0.000002 -0.000003
15.000000 -0.000026 0.000011 -0.000007
30.000000 -0.000002 0.000005 0.000056
3
1.000000 -0.000478 -0.068363 0.014166
15.000000 -0.000491 0.068362 -0.014167
30.000000 -0.000478 -0.068363 0.014166
"joint6"
"joint5"
16 0.000000 0.000000 5.922839 0.024166 0.000318 -3.141593
3
1.000000 -0.000001 0.000007 -0.000009
15.000000 0.000119 -0.000015 -0.000027
30.000000 0.000004 0.000050 0.000250
3
1.000000 0.000419 0.068685 0.012508
15.000000 0.000440 -0.068683 -0.012509
30.000000 0.000419 0.068686 0.012507
"joint7"
"joint6"
16 0.000000 0.000000 4.472137 -0.055496 0.000651 -3.141593
3
1.000000 0.000002 -0.000014 -0.000016
15.000000 -0.000481 0.000095 -0.000096
30.000000 0.000003 -0.000183 0.000895
3
1.000000 -0.000298 -0.069273 0.008673
15.000000 -0.000303 0.069261 -0.008674
30.000000 -0.000297 -0.069275 0.008669
"joint8"
"joint7"
16 0.000000 0.000000 4.837355 0.000000 0.000000 0.000000
3
1.000000 0.000000 -0.000039 -0.000057
15.000000 -0.002803 0.000866 -0.000556
30.000000 0.000089 -0.000354 0.004622
3
1.000000 -0.000298 -0.069273 0.008673
15.000000 -0.000300 0.069210 -0.008678
30.000000 -0.000293 -0.069282 0.008654
