=============================================
  CodeTyphon Studio
  Typhon IDE
  Package Information file
=============================================

pl_OpenGL

Version: 7.3.1 Date: 2020-09-28 21:41


--------------------------------------------------

gl.xml, glx.xml, wgl.xml  REF GIT hash: 6d6786b6c9afd3b5489faaa04d1e9ea5ace31fef

