=============================================
  CodeTyphon Studio
  Typhon IDE
  Package Information file
=============================================

pl_Win_DirectXUT

Version: 6.9.1 Date: 2020-05-12 08:54





