=============================================
  CodeTyphon Studio
  Typhon IDE
  Information file
=============================================

pl_Win_Directx12

Ver 6.3.1 Date 06-01-2018 Source GIT hash: 971aa7483ae96b529a55e5a362f6d98a937cc586


==== MODs ==========

DX12.D2D1.pas ### at line: 1996

 
